{
    "count": 10,
    "results": [
        {
            "id": 120,
            "url": "http://192.168.33.110/api/v3/posts/120",
            "user": {
                "id": 1,
                "url": "http://192.168.33.110/api/v3/users/1"
            },
            "parent_id": null,
            "form": {
                "id": 1,
                "url": "http://192.168.33.110/api/v3/forms/1"
            },
            "message": null,
            "type": "report",
            "title": "Post published to members",
            "slug": null,
            "content": "Post published to members",
            "author_email": null,
            "author_realname": null,
            "status": "published",
            "created": "2014-09-29T21:10:16+00:00",
            "updated": "2015-11-28T17:48:36+00:00",
            "locale": "en_us",
            "values": {
                "test_point": [
                    {
                        "lon": 144.140625,
                        "lat": -30.145127
                    }
                ],
                "last_location_point": [
                    {
                        "lon": 125.156057,
                        "lat": -36.173249
                    }
                ],
                "description": [
                    "test"
                ],
                "test_varchar": [
                    "test"
                ],
                "full_name": [
                    "test"
                ],
                "person_status": [
                    "information_sought",
                    "believed_alive"
                ]
            },
            "tags": [

            ],
            "published_to": [
                "admin"
            ],
            "completed_stages": [
                "2"
            ],
            "sets": [
                "2",
                "7"
            ],
            "source": null,
            "allowed_privileges": [
                "read",
                "create",
                "update",
                "delete",
                "search",
                "change_status"
            ]
        },
        {
            "id": 9999,
            "url": "http://192.168.33.110/api/v3/posts/9999",
            "user": {
                "id": 1,
                "url": "http://192.168.33.110/api/v3/users/1"
            },
            "parent_id": null,
            "form": null,
            "message": null,
            "type": "report",
            "title": "another report",
            "slug": null,
            "content": "Some description",
            "author_email": null,
            "author_realname": null,
            "status": "published",
            "created": "2014-09-29T16:10:22+00:00",
            "updated": null,
            "locale": "en_us",
            "values": {
                "last_location_point": [
                    {
                        "lon": 10.123,
                        "lat": 26.213
                    }
                ]
            },
            "tags": [

            ],
            "published_to": null,
            "completed_stages": [

            ],
            "sets": [
                "1"
            ],
            "source": null,
            "allowed_privileges": [
                "read",
                "create",
                "update",
                "delete",
                "search",
                "change_status"
            ]
        },
        {
            "id": 117,
            "url": "http://192.168.33.110/api/v3/posts/117",
            "parent": {
                "id": 110,
                "url": "http://192.168.33.110/api/v3/posts/110"
            },
            "user": {
                "id": 1,
                "url": "http://192.168.33.110/api/v3/users/1"
            },
            "form": {
                "id": 1,
                "url": "http://192.168.33.110/api/v3/forms/1"
            },
            "message": null,
            "type": "report",
            "title": "Update for draft",
            "slug": null,
            "content": "Update for draft",
            "author_email": null,
            "author_realname": null,
            "status": "draft",
            "created": "2014-09-29T15:36:56+00:00",
            "updated": null,
            "locale": "en_us",
            "values": [

            ],
            "tags": [

            ],
            "published_to": null,
            "completed_stages": [

            ],
            "sets": [

            ],
            "source": null,
            "allowed_privileges": [
                "read",
                "create",
                "update",
                "delete",
                "search",
                "change_status"
            ]
        },
        {
            "id": 114,
            "url": "http://192.168.33.110/api/v3/posts/114",
            "parent": {
                "id": 111,
                "url": "http://192.168.33.110/api/v3/posts/111"
            },
            "user": {
                "id": 1,
                "url": "http://192.168.33.110/api/v3/users/1"
            },
            "form": {
                "id": 1,
                "url": "http://192.168.33.110/api/v3/forms/1"
            },
            "message": null,
            "type": "report",
            "title": "Update for draft",
            "slug": null,
            "content": "Update for draft",
            "author_email": null,
            "author_realname": null,
            "status": "published",
            "created": "2014-09-28T06:00:27+00:00",
            "updated": null,
            "locale": "en_us",
            "values": [

            ],
            "tags": [

            ],
            "published_to": null,
            "completed_stages": [

            ],
            "sets": [
                "1"
            ],
            "source": null,
            "allowed_privileges": [
                "read",
                "create",
                "update",
                "delete",
                "search",
                "change_status"
            ]
        },
        {
            "id": 112,
            "url": "http://192.168.33.110/api/v3/posts/112",
            "user": {
                "id": 1,
                "url": "http://192.168.33.110/api/v3/users/1"
            },
            "parent_id": null,
            "form": {
                "id": 1,
                "url": "http://192.168.33.110/api/v3/forms/1"
            },
            "message": null,
            "type": "report",
            "title": "Draft 1",
            "slug": null,
            "content": "Testing draft",
            "author_email": null,
            "author_realname": null,
            "status": "draft",
            "created": "2014-08-21T07:50:43+00:00",
            "updated": null,
            "locale": "en_us",
            "values": [

            ],
            "tags": [

            ],
            "published_to": null,
            "completed_stages": [

            ],
            "sets": [
                "1"
            ],
            "source": null,
            "allowed_privileges": [
                "read",
                "create",
                "update",
                "delete",
                "search",
                "change_status"
            ]
        },
        {
            "id": 113,
            "url": "http://192.168.33.110/api/v3/posts/113",
            "user": {
                "id": 1,
                "url": "http://192.168.33.110/api/v3/users/1"
            },
            "parent_id": null,
            "form": {
                "id": 1,
                "url": "http://192.168.33.110/api/v3/forms/1"
            },
            "message": null,
            "type": "report",
            "title": "Draft 2",
            "slug": null,
            "content": "Testing draft 2",
            "author_email": null,
            "author_realname": null,
            "status": "pending",
            "created": "2014-07-10T12:55:21+00:00",
            "updated": null,
            "locale": "en_us",
            "values": [

            ],
            "tags": [

            ],
            "published_to": null,
            "completed_stages": [

            ],
            "sets": [
                "1"
            ],
            "source": null,
            "allowed_privileges": [
                "read",
                "create",
                "update",
                "delete",
                "search",
                "change_status"
            ]
        },
        {
            "id": 102,
            "url": "http://192.168.33.110/api/v3/posts/102",
            "parent": {
                "id": 99,
                "url": "http://192.168.33.110/api/v3/posts/99"
            },
            "user": {
                "id": 1,
                "url": "http://192.168.33.110/api/v3/users/1"
            },
            "form": {
                "id": 2,
                "url": "http://192.168.33.110/api/v3/forms/2"
            },
            "message": null,
            "type": "report",
            "title": "Child missing person report",
            "slug": null,
            "content": "Some description",
            "author_email": null,
            "author_realname": null,
            "status": "published",
            "created": "2014-06-19T09:25:57+00:00",
            "updated": null,
            "locale": "en_us",
            "values": {
                "person_status": [
                    "believed_missing"
                ]
            },
            "tags": [

            ],
            "published_to": null,
            "completed_stages": [

            ],
            "sets": [

            ],
            "source": null,
            "allowed_privileges": [
                "read",
                "create",
                "update",
                "delete",
                "search",
                "change_status"
            ]
        },
        {
            "id": 111,
            "url": "http://192.168.33.110/api/v3/posts/111",
            "user": {
                "id": 1,
                "url": "http://192.168.33.110/api/v3/users/1"
            },
            "parent_id": null,
            "form": {
                "id": 1,
                "url": "http://192.168.33.110/api/v3/forms/1"
            },
            "message": null,
            "type": "report",
            "title": "ACL private post",
            "slug": null,
            "content": "Testing oauth posts api access",
            "author_email": null,
            "author_realname": null,
            "status": "draft",
            "created": "2014-04-29T12:27:15+00:00",
            "updated": null,
            "locale": "en_us",
            "values": [

            ],
            "tags": [

            ],
            "published_to": null,
            "completed_stages": [

            ],
            "sets": [
                "1"
            ],
            "source": null,
            "allowed_privileges": [
                "read",
                "create",
                "update",
                "delete",
                "search",
                "change_status"
            ]
        },
        {
            "id": 96,
            "url": "http://192.168.33.110/api/v3/posts/96",
            "user": {
                "id": 1,
                "url": "http://192.168.33.110/api/v3/users/1"
            },
            "parent_id": null,
            "form": {
                "id": 1,
                "url": "http://192.168.33.110/api/v3/forms/1"
            },
            "message": null,
            "type": "report",
            "title": "French post to test Searching",
            "slug": null,
            "content": "Some description",
            "author_email": null,
            "author_realname": null,
            "status": "published",
            "created": "2013-11-18T08:10:38+00:00",
            "updated": null,
            "locale": "fr_fr",
            "values": [

            ],
            "tags": [

            ],
            "published_to": null,
            "completed_stages": [
                "1",
                "2"
            ],
            "sets": [

            ],
            "source": null,
            "allowed_privileges": [
                "read",
                "create",
                "update",
                "delete",
                "search",
                "change_status"
            ]
        },
        {
            "id": 99,
            "url": "http://192.168.33.110/api/v3/posts/99",
            "user": {
                "id": 1,
                "url": "http://192.168.33.110/api/v3/users/1"
            },
            "parent_id": null,
            "form": {
                "id": 1,
                "url": "http://192.168.33.110/api/v3/forms/1"
            },
            "message": null,
            "type": "report",
            "title": "Should be returned when Searching",
            "slug": null,
            "content": "Some description",
            "author_email": null,
            "author_realname": null,
            "status": "published",
            "created": "2013-09-01T07:01:20+00:00",
            "updated": null,
            "locale": "en_us",
            "values": {
                "last_location_point": [
                    {
                        "lon": 11.123,
                        "lat": 24.213
                    }
                ],
                "test_varchar": [
                    "some-string"
                ]
            },
            "tags": [
                {
                    "id": "3",
                    "url": "http://192.168.33.110/api/v3/tags/3"
                }
            ],
            "published_to": null,
            "completed_stages": [

            ],
            "sets": [

            ],
            "source": null,
            "allowed_privileges": [
                "read",
                "create",
                "update",
                "delete",
                "search",
                "change_status"
            ]
        }
    ],
    "limit": "10",
    "offset": "0",
    "order": "desc",
    "orderby": "created",
    "curr": "http://192.168.33.110/api/v3/posts?limit=10&offset=0&order=desc&orderby=created&status=all",
    "next": "http://192.168.33.110/api/v3/posts?limit=10&offset=10&order=desc&orderby=created&status=all",
    "prev": "http://192.168.33.110/api/v3/posts?limit=10&offset=0&order=desc&orderby=created&status=all",
    "total_count": 16
}
